"Source:","G:\Shared drives\School\3rd Year 2022\EEE3088F\Group assignments\eee3088f_2022_templating-main\eee3088f_2022_templating-main\PCB\main\microcontroller_interfacing.kicad_sch"
"Date:","3/11/2022 6:08:45 PM"
"Tool:","Eeschema (6.0.2)"
"Generator:","C:\Program Files\KiCad\6.0\bin\scripting\plugins/bom_csv_grouped_by_value_with_fp.py"
"Component Count:","7"
"Ref","Qnty","Value","Cmp name","Footprint","Description","Vendor"
"BZ1, ","1","PKM13EPYH4002-B0","Buzzer","","Buzzer, polarized",""
"C6482, ","1","AT24C256C","CAT24C256","","256 kb CMOS Serial EEPROM, DIP-8/SOIC-8/TSSOP-8/DFN-8",""
"R1, R2, ","2","10K","R","","Resistor",""
"RV1, ","1","R_Potentiometer","R_Potentiometer","","Potentiometer",""
"U2, ","1","PKM13EPYH4002-B0","LCD-016N002L","Display:LCD-016N002L","LCD 12x2, 8 bit parallel bus, 3V or 5V VDD",""
"U3, ","1","STM32F051C6Tx Discovery board","STM32F051C6Tx","Package_QFP:LQFP-48_7x7mm_P0.5mm","ARM Cortex-M0 MCU, 32KB flash, 8KB RAM, 48MHz, 2-3.6V, 39 GPIO, LQFP-48",""
