(kicad_sch (version 20211123) (generator eeschema)

  (uuid b1ddb058-f7b2-429c-9489-f4e2242ad7e5)

  (paper "A4")

  (title_block
    (title "Digital Proximity Sensor")
    (date "2022-03-11")
    (rev "v2.1")
    (comment 4 "Author: Luke Kratz")
    (comment 5 "Replaced VL53 with a phototransistor")
  )

  (lib_symbols
    (symbol "Device:C" (pin_numbers hide) (pin_names (offset 0.254)) (in_bom yes) (on_board yes)
      (property "Reference" "C" (id 0) (at 0.635 2.54 0)
        (effects (font (size 1.27 1.27)) (justify left))
      )
      (property "Value" "C" (id 1) (at 0.635 -2.54 0)
        (effects (font (size 1.27 1.27)) (justify left))
      )
      (property "Footprint" "" (id 2) (at 0.9652 -3.81 0)
        (effects (font (size 1.27 1.27)) hide)
      )
      (property "Datasheet" "~" (id 3) (at 0 0 0)
        (effects (font (size 1.27 1.27)) hide)
      )
      (property "ki_keywords" "cap capacitor" (id 4) (at 0 0 0)
        (effects (font (size 1.27 1.27)) hide)
      )
      (property "ki_description" "Unpolarized capacitor" (id 5) (at 0 0 0)
        (effects (font (size 1.27 1.27)) hide)
      )
      (property "ki_fp_filters" "C_*" (id 6) (at 0 0 0)
        (effects (font (size 1.27 1.27)) hide)
      )
      (symbol "C_0_1"
        (polyline
          (pts
            (xy -2.032 -0.762)
            (xy 2.032 -0.762)
          )
          (stroke (width 0.508) (type default) (color 0 0 0 0))
          (fill (type none))
        )
        (polyline
          (pts
            (xy -2.032 0.762)
            (xy 2.032 0.762)
          )
          (stroke (width 0.508) (type default) (color 0 0 0 0))
          (fill (type none))
        )
      )
      (symbol "C_1_1"
        (pin passive line (at 0 3.81 270) (length 2.794)
          (name "~" (effects (font (size 1.27 1.27))))
          (number "1" (effects (font (size 1.27 1.27))))
        )
        (pin passive line (at 0 -3.81 90) (length 2.794)
          (name "~" (effects (font (size 1.27 1.27))))
          (number "2" (effects (font (size 1.27 1.27))))
        )
      )
    )
    (symbol "Device:Q_Photo_NPN" (pin_names (offset 0) hide) (in_bom yes) (on_board yes)
      (property "Reference" "Q" (id 0) (at 5.08 1.27 0)
        (effects (font (size 1.27 1.27)) (justify left))
      )
      (property "Value" "Q_Photo_NPN" (id 1) (at 5.08 -1.27 0)
        (effects (font (size 1.27 1.27)) (justify left))
      )
      (property "Footprint" "" (id 2) (at 5.08 2.54 0)
        (effects (font (size 1.27 1.27)) hide)
      )
      (property "Datasheet" "~" (id 3) (at 0 0 0)
        (effects (font (size 1.27 1.27)) hide)
      )
      (property "ki_keywords" "phototransistor NPN" (id 4) (at 0 0 0)
        (effects (font (size 1.27 1.27)) hide)
      )
      (property "ki_description" "NPN phototransistor, collector/emitter" (id 5) (at 0 0 0)
        (effects (font (size 1.27 1.27)) hide)
      )
      (symbol "Q_Photo_NPN_0_1"
        (polyline
          (pts
            (xy -1.905 1.27)
            (xy -2.54 1.27)
          )
          (stroke (width 0) (type default) (color 0 0 0 0))
          (fill (type none))
        )
        (polyline
          (pts
            (xy -1.27 2.54)
            (xy -1.905 2.54)
          )
          (stroke (width 0) (type default) (color 0 0 0 0))
          (fill (type none))
        )
        (polyline
          (pts
            (xy 0.635 0.635)
            (xy 2.54 2.54)
          )
          (stroke (width 0) (type default) (color 0 0 0 0))
          (fill (type none))
        )
        (polyline
          (pts
            (xy -3.81 3.175)
            (xy -1.905 1.27)
            (xy -1.905 1.905)
          )
          (stroke (width 0) (type default) (color 0 0 0 0))
          (fill (type none))
        )
        (polyline
          (pts
            (xy -3.175 4.445)
            (xy -1.27 2.54)
            (xy -1.27 3.175)
          )
          (stroke (width 0) (type default) (color 0 0 0 0))
          (fill (type none))
        )
        (polyline
          (pts
            (xy 0.635 -0.635)
            (xy 2.54 -2.54)
            (xy 2.54 -2.54)
          )
          (stroke (width 0) (type default) (color 0 0 0 0))
          (fill (type none))
        )
        (polyline
          (pts
            (xy 0.635 1.905)
            (xy 0.635 -1.905)
            (xy 0.635 -1.905)
          )
          (stroke (width 0.508) (type default) (color 0 0 0 0))
          (fill (type none))
        )
        (polyline
          (pts
            (xy 1.27 -1.778)
            (xy 1.778 -1.27)
            (xy 2.286 -2.286)
            (xy 1.27 -1.778)
            (xy 1.27 -1.778)
          )
          (stroke (width 0) (type default) (color 0 0 0 0))
          (fill (type outline))
        )
        (circle (center 1.27 0) (radius 2.8194)
          (stroke (width 0.254) (type default) (color 0 0 0 0))
          (fill (type none))
        )
      )
      (symbol "Q_Photo_NPN_1_1"
        (pin passive line (at 2.54 5.08 270) (length 2.54)
          (name "C" (effects (font (size 1.27 1.27))))
          (number "1" (effects (font (size 1.27 1.27))))
        )
        (pin passive line (at 2.54 -5.08 90) (length 2.54)
          (name "E" (effects (font (size 1.27 1.27))))
          (number "2" (effects (font (size 1.27 1.27))))
        )
      )
    )
    (symbol "Device:R" (pin_numbers hide) (pin_names (offset 0)) (in_bom yes) (on_board yes)
      (property "Reference" "R" (id 0) (at 2.032 0 90)
        (effects (font (size 1.27 1.27)))
      )
      (property "Value" "R" (id 1) (at 0 0 90)
        (effects (font (size 1.27 1.27)))
      )
      (property "Footprint" "" (id 2) (at -1.778 0 90)
        (effects (font (size 1.27 1.27)) hide)
      )
      (property "Datasheet" "~" (id 3) (at 0 0 0)
        (effects (font (size 1.27 1.27)) hide)
      )
      (property "ki_keywords" "R res resistor" (id 4) (at 0 0 0)
        (effects (font (size 1.27 1.27)) hide)
      )
      (property "ki_description" "Resistor" (id 5) (at 0 0 0)
        (effects (font (size 1.27 1.27)) hide)
      )
      (property "ki_fp_filters" "R_*" (id 6) (at 0 0 0)
        (effects (font (size 1.27 1.27)) hide)
      )
      (symbol "R_0_1"
        (rectangle (start -1.016 -2.54) (end 1.016 2.54)
          (stroke (width 0.254) (type default) (color 0 0 0 0))
          (fill (type none))
        )
      )
      (symbol "R_1_1"
        (pin passive line (at 0 3.81 270) (length 1.27)
          (name "~" (effects (font (size 1.27 1.27))))
          (number "1" (effects (font (size 1.27 1.27))))
        )
        (pin passive line (at 0 -3.81 90) (length 1.27)
          (name "~" (effects (font (size 1.27 1.27))))
          (number "2" (effects (font (size 1.27 1.27))))
        )
      )
    )
    (symbol "power:GND" (power) (pin_names (offset 0)) (in_bom yes) (on_board yes)
      (property "Reference" "#PWR" (id 0) (at 0 -6.35 0)
        (effects (font (size 1.27 1.27)) hide)
      )
      (property "Value" "GND" (id 1) (at 0 -3.81 0)
        (effects (font (size 1.27 1.27)))
      )
      (property "Footprint" "" (id 2) (at 0 0 0)
        (effects (font (size 1.27 1.27)) hide)
      )
      (property "Datasheet" "" (id 3) (at 0 0 0)
        (effects (font (size 1.27 1.27)) hide)
      )
      (property "ki_keywords" "power-flag" (id 4) (at 0 0 0)
        (effects (font (size 1.27 1.27)) hide)
      )
      (property "ki_description" "Power symbol creates a global label with name \"GND\" , ground" (id 5) (at 0 0 0)
        (effects (font (size 1.27 1.27)) hide)
      )
      (symbol "GND_0_1"
        (polyline
          (pts
            (xy 0 0)
            (xy 0 -1.27)
            (xy 1.27 -1.27)
            (xy 0 -2.54)
            (xy -1.27 -1.27)
            (xy 0 -1.27)
          )
          (stroke (width 0) (type default) (color 0 0 0 0))
          (fill (type none))
        )
      )
      (symbol "GND_1_1"
        (pin power_in line (at 0 0 270) (length 0) hide
          (name "GND" (effects (font (size 1.27 1.27))))
          (number "1" (effects (font (size 1.27 1.27))))
        )
      )
    )
  )

  (junction (at 156.972 82.3722) (diameter 0) (color 0 0 0 0)
    (uuid 094baeb8-0681-472a-a99f-41b3363e9f0a)
  )
  (junction (at 156.972 74.041) (diameter 0) (color 0 0 0 0)
    (uuid 724b2b34-4e93-42d7-96c4-a21c9c80b2ee)
  )
  (junction (at 148.844 61.214) (diameter 0) (color 0 0 0 0)
    (uuid b1acf9e2-5af9-46d3-9ded-2e24531fbe7e)
  )
  (junction (at 139.827 56.0324) (diameter 0) (color 0 0 0 0)
    (uuid bdb5561c-fe20-423d-b7d5-a0d0badc0382)
  )
  (junction (at 164.719 61.214) (diameter 0) (color 0 0 0 0)
    (uuid f7ee6935-6162-410c-8fac-fb1bc1a943ae)
  )

  (wire (pts (xy 164.719 60.96) (xy 164.719 61.214))
    (stroke (width 0) (type default) (color 0 0 0 0))
    (uuid 06dd169b-e1a6-4577-994e-52f0c88f731a)
  )
  (wire (pts (xy 148.844 74.041) (xy 156.972 74.041))
    (stroke (width 0) (type default) (color 0 0 0 0))
    (uuid 1d4d9fab-14d4-4c07-924d-736adb13e37b)
  )
  (wire (pts (xy 139.827 45.847) (xy 139.827 37.465))
    (stroke (width 0) (type default) (color 0 0 0 0))
    (uuid 1f54c1f1-62ae-41f4-8bcb-fc87501211b3)
  )
  (wire (pts (xy 139.827 56.0324) (xy 139.827 61.214))
    (stroke (width 0) (type default) (color 0 0 0 0))
    (uuid 3637202c-aebb-48f1-b690-f6ea6958e81c)
  )
  (wire (pts (xy 139.827 61.214) (xy 148.844 61.214))
    (stroke (width 0) (type default) (color 0 0 0 0))
    (uuid 5db0a087-bbe7-4d5b-8fe6-a9e9cf784faa)
  )
  (wire (pts (xy 139.827 37.465) (xy 139.7 37.465))
    (stroke (width 0) (type default) (color 0 0 0 0))
    (uuid 7114b75a-5eeb-4616-96ea-dfea1d42f03c)
  )
  (wire (pts (xy 148.844 61.214) (xy 148.844 63.246))
    (stroke (width 0) (type default) (color 0 0 0 0))
    (uuid 8be4a071-1e17-4b1e-b932-b3082dbe6493)
  )
  (wire (pts (xy 164.719 61.214) (xy 164.719 63.5))
    (stroke (width 0) (type default) (color 0 0 0 0))
    (uuid 9665c859-84e1-4cf5-8bd1-208cb54b6f62)
  )
  (wire (pts (xy 156.972 82.3722) (xy 156.972 82.423))
    (stroke (width 0) (type default) (color 0 0 0 0))
    (uuid 9fed3a0f-18e3-4e4c-a271-140f75b47fbd)
  )
  (wire (pts (xy 156.972 74.041) (xy 164.719 74.041))
    (stroke (width 0) (type default) (color 0 0 0 0))
    (uuid a89d46bf-2e4d-409d-a173-d5b506a90295)
  )
  (wire (pts (xy 156.972 74.041) (xy 156.972 82.3722))
    (stroke (width 0) (type default) (color 0 0 0 0))
    (uuid aa484d57-2a6f-45da-94da-beae2b7151c9)
  )
  (wire (pts (xy 148.844 70.866) (xy 148.844 74.041))
    (stroke (width 0) (type default) (color 0 0 0 0))
    (uuid b58f746c-4a50-4a7a-9da9-393f9ff986a5)
  )
  (wire (pts (xy 164.719 74.041) (xy 164.719 71.12))
    (stroke (width 0) (type default) (color 0 0 0 0))
    (uuid bb549d79-f173-4439-822f-b6116cd86db8)
  )
  (polyline (pts (xy 221.615 12.065) (xy 221.615 148.59))
    (stroke (width 0) (type default) (color 0 0 0 0))
    (uuid bd5442e1-5435-4f9a-912d-c4c57d3d0ee4)
  )

  (wire (pts (xy 148.844 61.214) (xy 164.719 61.214))
    (stroke (width 0) (type default) (color 0 0 0 0))
    (uuid d054c316-32a5-451a-a1ec-ab432b8aa251)
  )
  (wire (pts (xy 178.562 60.96) (xy 164.719 60.96))
    (stroke (width 0) (type default) (color 0 0 0 0))
    (uuid e129967a-a98c-4e68-b867-741e3f021904)
  )
  (polyline (pts (xy 12.065 148.59) (xy 285.115 148.59))
    (stroke (width 0) (type default) (color 0 0 0 0))
    (uuid e1905a39-bd57-41c5-b262-1c8195859afb)
  )

  (wire (pts (xy 139.827 56.007) (xy 139.827 56.0324))
    (stroke (width 0) (type default) (color 0 0 0 0))
    (uuid f824f00f-05ef-4ccb-8ee6-a2795a6c2dcf)
  )

  (text "Power LED indicator" (at 222.885 147.955 0)
    (effects (font (size 1.27 1.27)) (justify left bottom))
    (uuid 5fcb4f80-8e9c-4214-b669-67b6f1daf65a)
  )
  (text "Proximity Sensor" (at 203.835 147.955 0)
    (effects (font (size 1.27 1.27)) (justify left bottom))
    (uuid 672b5396-f340-4b6f-87e4-8e870ea81c09)
  )

  (hierarchical_label "2V8" (shape input) (at 139.7 37.465 90)
    (effects (font (size 1.27 1.27)) (justify left))
    (uuid 2528653c-4788-431c-886e-b808492823b3)
  )
  (hierarchical_label "VLight" (shape input) (at 178.562 60.96 0)
    (effects (font (size 1.27 1.27)) (justify left))
    (uuid a02197b2-eaba-434e-8293-f84532cb371b)
  )

  (symbol (lib_id "power:GND") (at 156.972 82.3722 0) (unit 1)
    (in_bom yes) (on_board yes)
    (uuid 00000000-0000-0000-0000-0000622a7b2b)
    (property "Reference" "#PWR035" (id 0) (at 156.972 88.7222 0)
      (effects (font (size 1.27 1.27)) hide)
    )
    (property "Value" "GND" (id 1) (at 157.099 86.7664 0))
    (property "Footprint" "" (id 2) (at 156.972 82.3722 0)
      (effects (font (size 1.27 1.27)) hide)
    )
    (property "Datasheet" "" (id 3) (at 156.972 82.3722 0)
      (effects (font (size 1.27 1.27)) hide)
    )
    (pin "1" (uuid 9e70e958-7937-427c-8718-ac822fec42a0))
  )

  (symbol (lib_id "Device:R") (at 148.844 67.056 0) (unit 1)
    (in_bom yes) (on_board yes) (fields_autoplaced)
    (uuid 53972f30-0e63-44ba-8151-bc725f5d8800)
    (property "Reference" "R11" (id 0) (at 151.13 65.7859 0)
      (effects (font (size 1.27 1.27)) (justify left))
    )
    (property "Value" "1k" (id 1) (at 151.13 68.3259 0)
      (effects (font (size 1.27 1.27)) (justify left))
    )
    (property "Footprint" "Resistor_SMD:R_0603_1608Metric" (id 2) (at 147.066 67.056 90)
      (effects (font (size 1.27 1.27)) hide)
    )
    (property "Datasheet" "~" (id 3) (at 148.844 67.056 0)
      (effects (font (size 1.27 1.27)) hide)
    )
    (pin "1" (uuid 7b05446a-5379-4f5d-942a-7b3116dd5c8c))
    (pin "2" (uuid aff063eb-628b-4682-ae0e-78bde4495170))
  )

  (symbol (lib_id "Device:Q_Photo_NPN") (at 137.287 50.9524 0) (unit 1)
    (in_bom yes) (on_board yes) (fields_autoplaced)
    (uuid 6999b4fa-2554-4f88-a114-67cfd1a2d13a)
    (property "Reference" "Q3" (id 0) (at 142.24 48.933 0)
      (effects (font (size 1.27 1.27)) (justify left))
    )
    (property "Value" "Q_Photo_NPN" (id 1) (at 142.24 51.473 0)
      (effects (font (size 1.27 1.27)) (justify left))
    )
    (property "Footprint" "Diode_SMD:D_0201_0603Metric" (id 2) (at 142.367 48.4124 0)
      (effects (font (size 1.27 1.27)) hide)
    )
    (property "Datasheet" "~" (id 3) (at 137.287 50.9524 0)
      (effects (font (size 1.27 1.27)) hide)
    )
    (pin "1" (uuid f672be3b-134d-4feb-9c3b-5858d9791437))
    (pin "2" (uuid f5a63825-b5d0-4689-95d7-73382f27bff9))
  )

  (symbol (lib_id "Device:C") (at 164.719 67.31 0) (unit 1)
    (in_bom yes) (on_board yes) (fields_autoplaced)
    (uuid f84794e9-fc83-4767-be6e-abe42353e478)
    (property "Reference" "C8" (id 0) (at 167.64 66.0399 0)
      (effects (font (size 1.27 1.27)) (justify left))
    )
    (property "Value" "150nF" (id 1) (at 167.64 68.5799 0)
      (effects (font (size 1.27 1.27)) (justify left))
    )
    (property "Footprint" "Capacitor_SMD:C_0603_1608Metric" (id 2) (at 165.6842 71.12 0)
      (effects (font (size 1.27 1.27)) hide)
    )
    (property "Datasheet" "~" (id 3) (at 164.719 67.31 0)
      (effects (font (size 1.27 1.27)) hide)
    )
    (pin "1" (uuid f67cff01-2102-43b0-80a9-4000d727793e))
    (pin "2" (uuid 5a08e4d1-2355-4266-8c80-c97124512904))
  )
)
